1 20 21
1 1 1
3 60 113
888888 888888 119
999999 999999 259
1 999999 525
50 30 110
12 60 113
5678 23849 282
12749 78999 351
88888 99999 333
12345 789374 509
64839 46584 340
66667 88888 351
90 30 116
1 666667 509
345284 894753 525
909 576849 470
32635 26372 308
844783 61348 525
945071 270789 525
174253 584783 470
963258 82777 525
275873 998490 525
775569 932556 525
607070 697547 509
101093 879514 525
885421 29623 525
39248 457646 449
251469 626667 509
2156 251314 443
9935 263276 443
686167 609844 509
800518 305019 509
900756 917855 476
987387 101324 525
609738 470883 470
206843 3115 383
790344 150426 509
846747 459195 525
412198 446935 418
597129 32239 470
390533 10618 443
75897 483775 449
817754 271831 509
721087 719548 411
988314 470998 525
940680 833068 525
75943 300383 443
82058 450288 449
292096 723865 509
714106 183346 509
731882 911964 525
381459 548917 470
582354 102241 470
481278 945806 525
337670 81948 443
580211 620418 447
785038 262954 509
20670 458611 449
429453 995093 525
580114 999341 525
53981 875355 525
321279 834774 509
954925 176466 525
847888 746076 525
985499 252942 525
121084 750683 509
218373 460386 449
304552 336001 384
63252 720202 509
439303 990835 525
22205 764452 509
57578 327020 443
948693 177180 525
959994 417621 525
183909 820117 509
638486 432707 509
736426 727 509
156327 680009 509
924355 365919 525
976485 259922 525
430851 23927 449
646126 684070 442
596812 147576 470
921439 478025 525
983100 530085 525
116544 338581 443
945801 166254 525
399572 875425 525
500174 681210 509
60139 367157 443
260052 957871 525
708141 615496 509
909357 61619 525
806353 410576 509
477858 21092 449
274075 163891 443
745 9000 262
234 789 171
123 123 47
5 5 6
5 700 145
134422 133678 313
99999 100000 227
6574 39484 324
697954 418770 509
373274 356 443
752635 791429 468
960457 869664 507
915970 166312 525
501186 357361 449
272067 270071 407
175774 27788 383
427846 586941 470
983166 821190 525
46153 989210 525
912557 497396 525
548553 611928 434
412330 706653 509
152775 810452 509
374451 572335 470
964159 304881 525
987138 577548 525
824490 212904 509
61064 343618 443
931100 50893 525
171123 334379 443
848401 524242 525
555662 589729 434
993594 983319 427
815073 907049 525
767481 101043 509
888628 455894 525
387790 317576 441
119742 194194 383
933398 198296 525
899614 298541 525
79546 119514 354
11277 639467 509
926808 360090 525
555039 601658 434
193631 218508 386
891243 179279 525
66869 112523 354
403283 476164 449
710660 502041 509
976132 580770 525
34433 323124 443
320624 574815 470
832947 283329 509
916269 268435 525
927015 139578 525
506036 241990 449
118544 662065 509
739340 522916 509
714091 68665 509
937516 280701 525
81639 721547 509
328670 28430 443
668880 53730 509
934639 85717 525
620217 965501 525
949142 43875 525
225451 639344 509
27382 666206 509
856802 370741 525
964701 321720 525
275601 749145 509
137287 515072 470
432301 814668 509
270953 585993 470
687880 809908 504
637980 260642 509
792904 403109 509
971243 148318 525
536806 661450 509
589790 524707 452
71710 289227 443
571650 688192 509
78019 583942 470
975242 182699 525
385888 987480 525
557411 209420 470
138806 88623 354
459100 795826 509
725614 943942 525
249850 486534 449
655119 897274 525
639947 463586 509
959914 864813 507
357320 409367 436
710527 457337 509
111465 689054 509
668084 958767 525
147046 533493 470
405466 117525 443
56347 556493 470
26032 428182 449
285258 164676 443
344615 19686 443
778343 213345 509
579167 455567 470
248140 377215 441
532908 340948 470
37761 29401 324
68701 579141 470
992629 971862 427
868374 311710 525
364918 491380 449
47075 739243 509
640547 104320 509
133065 523962 470
572714 266300 470
616936 273323 470
485334 328466 449
806527 580298 509
200582 718874 509
337020 182723 443
65388 295145 443
