626792 368163
473179 177768
834860 835830
663775 821297
853990 752818
700842 289022
876128 739234
334222 658588
629958 489561
823331 637849
846755 579685
711066 130890
112185 852706
114673 207678
924621 923497
288530 7980
660072 473869
377431 659780
284115 640336
898432 663630
10074 950608
607433 450288
264485 144099
445559 216423
869022 390737
808272 564774
519072 346847
756365 387532
360 963610
729936 896476
107358 183607
688749 848888
538680 667882
852436 272859
460843 429759
864400 296203
4398 136662
207215 760687
772283 514312
231200 668940
98393 469676
191107 935347
265149 415307
662068 308489
556988 385586
456949 515907
216067 980680
766093 403264
28018 418751
497034 923610
486943 643372
553232 38062
592174 984011
758916 869069
179464 623289
941453 784285
775599 224502
850830 417975
146328 897922
673219 169534
191052 312413
322970 587546
635241 386284
99694 744561
116534 156790
770988 86319
751483 412271
798857 609990
118849 242104
110755 485585
600113 575796
342107 683095
341310 969735
551842 938387
150821 300931
266082 648921
408917 615907
206345 681908
195425 262011
818718 187651
425888 458824
462983 74115
57741 291362
346597 948978
55420 704167
135771 735272
845998 535473
60865 922469
845177 33556
69136 401330
916784 997186
234384 919935
253035 443697
729927 899577
785267 474722
348128 906877
921990 770177
939777 462644
5432 558957
90784 165620
855297 410151
387072 402995
430279 766344
426829 372444
889540 397725
747733 581872
934779 573870
556912 152732
1266 513183
671165 845564
592423 84566
503475 314778
868604 60165
573192 208608
54372 578596
207295 886683
666649 488076
590107 809639
255540 723345
385149 594280
620558 530603
688535 527891
821475 428964
78936 442454
189625 4330
449304 805890
598546 37802
919125 264841
198758 408088
300945 550446
314819 374280
447359 585761
805855 255853
969402 404913
344055 195902
819687 398503
412896 383687
661531 533250
175152 304705
808161 792906
928696 801842
462656 636650
99316 378661
481325 203922
592501 900673
370278 908090
490980 45486
533191 438668
268502 840233
889830 140119
734122 36220
807410 66689
388662 493251
970437 422027
555284 985028
248322 464624
763880 350922
735976 884058
529904 88527
952253 863993
731441 144442
76783 500680
90876 721288
427513 31815
63435 205147
901687 568701
834887 887544
639539 885362
450730 527204
630376 50917
590995 416681
1580 162264
972692 736660
617405 898094
520377 555104
422238 277903
588370 609692
281292 176736
163941 906944
942741 434753
772045 787410
825811 358048
911985 370985
500706 227912
871474 178461
533993 997101
632788 387220
839521 911924
460230 147571
499842 317416
326681 562800
49703 25405
823109 968084
332593 304180
762490 712528
555690 558502
754031 301454
67372 10510
176342 887110
301509 398493
452378 392603
743342 58726
58556 50464
603225 729699
809771 524574
903868 182011
838575 82296
462279 70644
515319 12146
913330 287509
521009 345601
962107 241044
476460 616952
484666 209059
743748 557355
882665 105650
802029 714719
802935 632095
639627 475769
524520 29562
253740 668034
325501 743658
422117 746326
658639 455580
47941 140052
981073 176245
101027 764282
699665 349634
936689 970287
160448 657881
808810 128687
501922 723979
810119 622153
477309 859689
945437 787897
602160 650753
409303 445568
758914 335249
606875 41612
536756 553388
346343 660808
623191 414163
665417 648639
423779 710523
176363 703632
262301 676467
108809 584991
354081 351641
243386 421642
132448 66084
18188 302436
313107 418800
768849 320300
44847 100350
733852 81033
766553 493795
227792 45861
523826 477591
290038 76007
181859 275646
303460 304187
784216 127179
450455 447144
225383 88270
262888 740544
924148 567494
501983 977117
212904 10337
708339 884354
818390 900070
121288 825834
